{
  "ext": {
    "ipython": {
      "theme": "in",
      "local_themes": {
        "out": "out",
        "in2": "in2",
        "rewrite": "rewrite"
      },
      "colorscheme": "default"
    },
    "wm": {
      "theme": "default",
      "colorscheme": "default"
    },
    "shell": {
      "theme": "default",
      "colorscheme": "default"
    },
    "tmux": {
      "theme": "default",
      "colorscheme": "default"
    },
    "vim": {
      "theme": "default",
      "local_themes": {
        "tagbar": "tagbar",
        "cmdwin": "cmdwin",
        "help": "help",
        "unite": "unite",
        "quickfix": "quickfix"
      },
      "colorscheme": "default"
    }
  },
  "common": {
    "term_truecolor": false,
    "dividers": {
      "right": {
        "hard": " \ue0b2",
        "soft": " \ue0b3"
      },
      "left": {
        "hard": "\ue0b0 ",
        "soft": "\ue0b1 "
      }
    },
    "spaces": 1
  }
}
